Place,Name,Sex,BirthDate,Country,Equipment,Division,BodyweightKg,WeightClassKg,Squat1Kg,Squat2Kg,Squat3Kg,Best3SquatKg,Bench1Kg,Bench2Kg,Bench3Kg,Best3BenchKg,Deadlift1Kg,Deadlift2Kg,Deadlift3Kg,Best3DeadliftKg,TotalKg,Event,Team
G,Eva Butterly,F,,Ireland,Raw,F-G,47.4,52,40,50,60,60,-30,-30,30,30,105,110,115,115,205,SBD,
G,Mairead Murphy,F,,Ireland,Raw,F-G,52.2,57,90,97.5,-100,97.5,-52.5,-52.5,52.5,52.5,127.5,130,132.5,132.5,282.5,SBD,Kinetic Training Systems
1,Claire Tierney,F,,Ireland,Raw,F-O,46,47,95,97.5,100,100,45,47.5,-50,47.5,115,120,125,125,272.5,SBD,Studio One
1,Dawn Steacy,F,1988-05-09,Ireland,Raw,F-O,51,52,107.5,112.5,-115,112.5,-67.5,67.5,70,70,132.5,137.5,142.5,142.5,325,SBD,Cork City Powerlifting Club
2,Aoife McCarthy,F,,Ireland,Raw,F-O,50.8,52,105,110,-112.5,110,60,-65,-65,60,135,142.5,147.5,147.5,317.5,SBD,
3,Gemma Davey,F,,Ireland,Raw,F-O,51.2,52,90,-95,-95,90,57.5,60,-62.5,60,120,130,-135,130,280,SBD,CityGym Limerick
4,Anna Dean,F,,Ireland,Raw,F-O,50.6,52,87.5,95,97.5,97.5,50,52.5,-55,52.5,95,102.5,107.5,107.5,257.5,SBD,CityGym Limerick
1,Jenny Wilson,F,,Ireland,Raw,F-O,56.2,57,87.5,97.5,102.5,102.5,52.5,57.5,60,60,140,150,160,160,322.5,SBD,Strength Militia
2,Karen Keatinge,F,,Ireland,Raw,F-O,56.4,57,92.5,100,105,105,57.5,62.5,65,65,122.5,130,135,135,305,SBD,Strength Militia
3,Rachael Kirwan,F,,Ireland,Raw,F-O,55.8,57,72.5,77.5,80,80,55,-60,-60,55,105,112.5,117.5,117.5,252.5,SBD,A.B.S Powerlifting
4,Lynda Daly,F,,Ireland,Raw,F-O,54.6,57,70,77.5,82.5,82.5,37.5,40,-42.5,40,117.5,125,-130,125,247.5,SBD,CityGym Limerick
5,Martina Hanniffy,F,,Ireland,Raw,F-O,55.4,57,82.5,90,92.5,92.5,-42.5,42.5,-45,42.5,102.5,107.5,110,110,245,SBD,
1,Gabrielle Ervine,F,,Ireland,Raw,F-O,62.8,63,140,145,-150,145,90,95,97.5,97.5,147.5,157.5,162.5,162.5,405,SBD,Custom Strength
2,Michaela Leonard,F,,Ireland,Raw,F-O,60.8,63,125,-132.5,132.5,132.5,72.5,-77.5,77.5,77.5,-170,175,182.5,182.5,392.5,SBD,
3,Geina McGrath,F,,Ireland,Raw,F-O,62.4,63,122.5,130,135,135,70,75,77.5,77.5,150,160,167.5,167.5,380,SBD,Strength Militia
4,Tara Maguire,F,,Ireland,Raw,F-O,62.6,63,145,150,-152.5,150,70,72.5,75,75,142.5,147.5,-152.5,147.5,372.5,SBD,Studio One
5,Aviva Walsh,F,,Ireland,Raw,F-O,60.4,63,115,120,-125,120,75,80,82.5,82.5,-155,-160,160,160,362.5,SBD,A.B.S Powerlifting
6,Noreen McDermott,F,,Ireland,Raw,F-O,60.2,63,112.5,-117.5,117.5,117.5,70,75,77.5,77.5,135,145,155,155,350,SBD,Strength Militia
7,Lucia Hughes,F,,Ireland,Raw,F-O,61.4,63,120,127.5,132.5,132.5,57.5,62.5,67.5,67.5,130,140,150,150,350,SBD,
8,Laura Buckley,F,,Ireland,Raw,F-O,62.4,63,97.5,102.5,107.5,107.5,65,70,-75,70,-140,145,150,150,327.5,SBD,A.B.S Powerlifting
9,Holly O'Reilly,F,,Ireland,Raw,F-O,61.2,63,100,102.5,107.5,107.5,50,-52.5,-52.5,50,140,-145,145,145,302.5,SBD,AKA Fitness
10,Karen McDonnell,F,,Ireland,Raw,F-O,59.8,63,97.5,102.5,107.5,107.5,45,47.5,50,50,117.5,122.5,130,130,287.5,SBD,
1,Emma McDermott,F,1992-11-22,Ireland,Raw,F-O,70.8,72,135,142.5,-147.5,142.5,75,80,,80,175,185,190,190,412.5,SBD,A.B.S Powerlifting
2,Lesley Shinnick,F,,Ireland,Raw,F-O,71.4,72,155,160,-162.5,160,75,-80,80,80,160,170,-180,170,410,SBD,A.B.S Powerlifting
3,Grace Tedford,F,,Ireland,Raw,F-O,71,72,125,-132.5,137.5,137.5,67.5,-72.5,72.5,72.5,155,162.5,167.5,167.5,377.5,SBD,Sayers Strength
4,Danielle Gault,F,,Ireland,Raw,F-O,70.4,72,115,122.5,127.5,127.5,70,75,-77.5,75,142.5,152.5,160,160,362.5,SBD,Strength Militia
5,Gemma Markey,F,1982-07-26,Ireland,Raw,F-O,70.2,72,130,137.5,142.5,142.5,62.5,67.5,-70,67.5,125,-135,135,135,345,SBD,CityGym Limerick
6,Oonagh Morrissy,F,,Ireland,Raw,F-O,69.2,72,105,112.5,-115,112.5,72.5,77.5,-80,77.5,137.5,145,-150,145,335,SBD,Strength Militia
7,Angela O'Connor,F,,Ireland,Raw,F-O,69.8,72,120,-127.5,127.5,127.5,65,70,-72.5,70,122.5,130,135,135,332.5,SBD,
8,Susan Critchley,F,,Ireland,Raw,F-O,68.6,72,107.5,112.5,115,115,57.5,60,62.5,62.5,130,140,142.5,142.5,320,SBD,Studio One
9,Liona Hanley,F,,Ireland,Raw,F-O,71.2,72,107.5,110,-112.5,110,60,62.5,-65,62.5,140,145,-147.5,145,317.5,SBD,Cork City Powerlifting Club
10,Maeve Mannion,F,,Ireland,Raw,F-O,71.4,72,110,120,125,125,55,60,-62.5,60,110,125,132.5,132.5,317.5,SBD,Pearson Fitness & Performance
11,Carol Lennon,F,,Ireland,Raw,F-O,70.4,72,-115,115,120,120,50,52.5,55,55,125,135,-140,135,310,SBD,CityGym Limerick
12,Geneviève Huskens,F,,Ireland,Raw,F-O,69.2,72,-87.5,90,95,95,47.5,-52.5,52.5,52.5,110,117.5,125,125,272.5,SBD,A.B.S Powerlifting
13,Niamh Delaney,F,,Ireland,Raw,F-O,69,72,80,85,90,90,-40,42.5,47.5,47.5,107.5,117.5,125,125,262.5,SBD,A.B.S Powerlifting
14,Hannah Treanor,F,,Ireland,Raw,F-O,70.2,72,80,85,90,90,-47.5,50,-52.5,50,110,117.5,-120,117.5,257.5,SBD,A.B.S Powerlifting
DQ,Mairead Fitzpatrick,F,,Ireland,Raw,F-O,69.2,72,97.5,-105,-105,97.5,,,,,,,,,,SBD,Sigma Nutrition
DQ,Charleen Coen,F,,Ireland,Raw,F-O,69.4,72,102.5,110,112.5,112.5,42.5,45,-47.5,45,-140,-150,-150,,,SBD,
1,Maeve Cummins,F,,Ireland,Raw,F-O,79.6,84,120,127.5,135,135,65,67.5,70,70,167.5,180,-190,180,385,SBD,Strength Militia
2,Nicole Craig #1,F,,Ireland,Raw,F-O,83.6,84,115,125,-132.5,125,62.5,-67.5,67.5,67.5,160,172.5,180,180,372.5,SBD,KJ Powerlifting Club
3,Margaret Carey,F,,Ireland,Raw,F-O,82.8,84,120,127.5,135,135,65,70,72.5,72.5,130,140,145,145,352.5,SBD,Kaos Gym
4,Leigh Porter,F,,Ireland,Raw,F-O,72.4,84,130,-140,-140,130,-55,57.5,-62.5,57.5,140,147.5,150,150,337.5,SBD,
5,Joanne Greene,F,,Ireland,Raw,F-O,81,84,120,125,127.5,127.5,60,65,70,70,125,132.5,137.5,137.5,335,SBD,CityGym Limerick
DQ,Fidelma Gilligan,F,,Ireland,Raw,F-O,80,84,-105,-105,-105,,-60,-65,65,65,120,125,130,130,,SBD,Athlone Powerlifting Club
1,Sinead Marley,F,,Ireland,Raw,F-O,101.6,84+,155,160,165,165,75,80,82.5,82.5,155,165,172.5,172.5,420,SBD,Cork City Powerlifting Club
2,Hannah McKee,F,,Ireland,Raw,F-O,133.5,84+,132.5,142.5,152.5,152.5,75,80,85,85,142.5,152.5,160,160,397.5,SBD,Strength Militia
3,Donna Ivie,F,,Ireland,Raw,F-O,106.4,84+,150,-157.5,157.5,157.5,75,82.5,-87.5,82.5,150,155,-160,155,395,SBD,Kaos Gym
4,Tracey Kelly,F,,Ireland,Raw,F-O,120.6,84+,125,132.5,-140,132.5,70,75,-77.5,75,152.5,162.5,170,170,377.5,SBD,Strength Militia
5,Niamh Doyle,F,,Ireland,Raw,F-O,97.2,84+,122.5,127.5,137.5,137.5,57.5,62.5,67.5,67.5,130,137.5,145,145,350,SBD,
6,Cliona O'Driscoll,F,,Ireland,Raw,F-O,90.8,84+,137.5,-142.5,142.5,142.5,40,45,,45,140,147.5,150,150,337.5,SBD,Kaos Gym
7,Sarah May Hamilton,F,,Ireland,Raw,F-O,117.2,84+,115,120,-125,120,65,70,72.5,72.5,125,132.5,135,135,327.5,SBD,Strength Militia
G,Ben Harrison,M,,Ireland,Raw,M-G,123.4,120+,210,217.5,222.5,222.5,160,165,-167.5,165,220,230,237.5,237.5,625,SBD,Kaos Gym
NS,Billy Morton,M,,Ireland,Raw,M-O,,,,,,,,,,,,,,,,SBD,Cork City Powerlifting Club
1,Darren Moloney,M,,Ireland,Raw,M-O,73.2,74,205,212.5,220,220,-105,112.5,117.5,117.5,240,250,260,260,597.5,SBD,
2,Eesa Alshuaib,M,,Ireland,Raw,M-O,72.8,74,187.5,197.5,200,200,157.5,163,168,168,200,215,227.5,227.5,595.5,SBD,A.B.S Powerlifting
3,Tommy Hourigan,M,,Ireland,Raw,M-O,72.4,74,180,190,-200,190,112.5,117.5,122.5,122.5,230,240,-247.5,240,552.5,SBD,Studio One
4,James Coogan,M,,Ireland,Raw,M-O,72.4,74,172.5,185,-200,185,110,115,117.5,117.5,207.5,217.5,225,225,527.5,SBD,Strength Militia
5,Michael Burke,M,,Ireland,Raw,M-O,73.6,74,157.5,167.5,172.5,172.5,112.5,120,-122.5,120,197.5,210,-222.5,210,502.5,SBD,CityGym Limerick
6,Peter Green,M,,Ireland,Raw,M-O,71,74,155,165,-175,165,90,-105,-105,90,210,220,-230,220,475,SBD,
7,Brian Lynch,M,,Ireland,Raw,M-O,72.8,74,142.5,150,157.5,157.5,92.5,95,100,100,160,170,185,185,442.5,SBD,Strength Militia
1,Michael Kiely,M,,Ireland,Raw,M-O,81.6,83,202.5,215,-225,215,130,137.5,140,140,250,265,275,275,630,SBD,
2,Conor Nolan,M,,Ireland,Raw,M-O,79.6,83,195,207.5,-215,207.5,135,-145,-145,135,235,250,-257.5,250,592.5,SBD,Galway Powerlifting Club
3,Ryan Lee #1,M,1986-09-29,Ireland,Raw,M-O,81.8,83,180,195,202.5,202.5,127.5,135,140,140,225,240,250,250,592.5,SBD,Custom Strength
4,Benny Gilligan,M,,Ireland,Raw,M-O,81.6,83,220,-230,-230,220,-130,130,-137.5,130,230,240,-250,240,590,SBD,Athlone Powerlifting Club
5,Jackie Doherty,M,,Ireland,Raw,M-O,81.8,83,190,200,205,205,105,110,112.5,112.5,230,240,-245,240,557.5,SBD,O'Flaherty Fitness & Performance
6,Patrick Jennings,M,,Ireland,Raw,M-O,81.6,83,185,-195,-195,185,120,125,-130,125,245,-255,-255,245,555,SBD,
7,Adam Joy,M,1992-12-05,Ireland,Raw,M-O,80.8,83,185,195,200,200,115,122.5,127.5,127.5,205,215,-222.5,215,542.5,SBD,Kaos Gym
8,Bobby Leask,M,,Ireland,Raw,M-O,78.2,83,162.5,175,190,190,100,107.5,-115,107.5,190,205,215,215,512.5,SBD,Galway Strength & Performance
9,Andrew Ryan,M,,Ireland,Raw,M-O,80.2,83,170,185,-190,185,95,100,-105,100,190,202.5,-215,202.5,487.5,SBD,CityGym Limerick
10,Kevin Croughan,M,,Ireland,Raw,M-O,81.8,83,137.5,147.5,160,160,100,107.5,115,115,165,175,200,200,475,SBD,
11,Graham Jack,M,,Ireland,Raw,M-O,79.8,83,-150,160,170,170,97.5,-102.5,105,105,170,182.5,190,190,465,SBD,Sayers Strength
12,James Fox,M,,Ireland,Raw,M-O,79.2,83,130,140,150,150,85,90,95,95,165,175,190,190,435,SBD,Strength Militia
13,Luke Fitzgerald,M,,Ireland,Raw,M-O,81.2,83,132.5,145,152.5,152.5,-95,95,105,105,150,160,165,165,422.5,SBD,EQ Strength & Conditioning
14,Marc Stanley,M,,Ireland,Raw,M-O,79.6,83,157.5,162.5,-167.5,162.5,90,-92.5,-92.5,90,145,152.5,160,160,412.5,SBD,Cork City Powerlifting Club
1,Arthur Lynch,M,,Ireland,Raw,M-O,90.4,93,245,257.5,-265,257.5,172.5,180,-182.5,180,280,-300,,280,717.5,SBD,CityGym Limerick
2,Stephen Cusack,M,,Ireland,Raw,M-O,93,93,202.5,215,220,220,125,132.5,135,135,260,-275,282.5,282.5,637.5,SBD,CityGym Limerick
3,Adam Santorelli,M,,Ireland,Raw,M-O,87,93,205,215,222.5,222.5,152.5,160,162.5,162.5,235,250,-257.5,250,635,SBD,
4,Shane Storey,M,,Ireland,Raw,M-O,88.2,93,200,210,220,220,135,142.5,-145,142.5,245,257.5,265,265,627.5,SBD,A.B.S Powerlifting
5,Warren Yelverton,M,,Ireland,Raw,M-O,92.2,93,190,197.5,202.5,202.5,145,152.5,-157.5,152.5,225,245,-255,245,600,SBD,Mallow Extreme SCC Gym
6,Kevin Bowers,M,,Ireland,Raw,M-O,88.4,93,180,190,-200,190,130,-135,-135,130,240,250,265,265,585,SBD,
7,Dan Hurley,M,,Ireland,Raw,M-O,92.4,93,195,210,-220,210,117.5,122.5,125,125,-225,237.5,-245,237.5,572.5,SBD,
8,Ivars Zemvalds,M,,Ireland,Raw,M-O,92.4,93,182.5,195,200,200,112.5,117.5,122.5,122.5,185,197.5,202.5,202.5,525,SBD,Pearson Fitness & Performance
9,Sean Keyes,M,,Ireland,Raw,M-O,91.4,93,170,180,190,190,95,102.5,107.5,107.5,195,-205,205,205,502.5,SBD,Studio One
10,Shane Hannan,M,,Ireland,Raw,M-O,90.2,93,150,162.5,170,170,85,90,95,95,185,195,202.5,202.5,467.5,SBD,CityGym Limerick
11,Gary Daly,M,,Ireland,Raw,M-O,87.6,93,-140,145,155,155,105,107.5,110,110,165,180,187.5,187.5,452.5,SBD,CityGym Limerick
12,Eric Killeen,M,,Ireland,Raw,M-O,88.4,93,137.5,145,152.5,152.5,102.5,110,115,115,157.5,167.5,180,180,447.5,SBD,Revolution Fitness
13,Paul Murphy #2,M,,Ireland,Raw,M-O,85.6,93,130,135,140,140,95,100,102.5,102.5,157.5,165,167.5,167.5,410,SBD,Cork City Powerlifting Club
1,Luke Curran,M,,Ireland,Raw,M-O,104,105,242.5,255,265,265,147.5,155,157.5,157.5,260,275,-285,275,697.5,SBD,Revolution Fitness
2,Ian Benson,M,,Ireland,Raw,M-O,104,105,227.5,237.5,242.5,242.5,147.5,155,160,160,270,280,-285,280,682.5,SBD,A.B.S Powerlifting
3,Christopher Dean,M,,Ireland,Raw,M-O,100,105,250,265,275,275,122.5,130,-135,130,245,255,267.5,267.5,672.5,SBD,CityGym Limerick
4,Andrew McCartney,M,,Ireland,Raw,M-O,102.6,105,230,245,252.5,252.5,137.5,142.5,147.5,147.5,230,250,262.5,262.5,662.5,SBD,Custom Strength
5,Danny McIlhagga,M,,Ireland,Raw,M-O,101.8,105,220,230,240,240,122.5,127.5,-130,127.5,250,270,280,280,647.5,SBD,Custom Strength
6,Darren Bennett,M,,Ireland,Raw,M-O,102.8,105,210,225,235,235,120,127.5,-135,127.5,230,250,270,270,632.5,SBD,DB Strength & Performance
7,Les Hogan,M,,Ireland,Raw,M-O,103.4,105,200,210,215,215,135,140,145,145,260,270,-280,270,630,SBD,Studio One
8,Gary O'Connor,M,,Ireland,Raw,M-O,101.4,105,215,227.5,-232.5,227.5,130,135,-140,135,240,250,255,255,617.5,SBD,CityGym Limerick
9,Stephen Manning,M,,Ireland,Raw,M-O,97.4,105,205,215,220,220,120,125,130,130,235,250,262.5,262.5,612.5,SBD,EverStrength Training
10,Thomas Faherty,M,,Ireland,Raw,M-O,105,105,185,205,220,220,-120,120,130,130,220,240,260,260,610,SBD,University of Limerick
11,Stephen Shine,M,,Ireland,Raw,M-O,104.2,105,220,225,-230,225,130,137.5,-140,137.5,200,210,220,220,582.5,SBD,Studio One
12,Owen Murphy,M,,Ireland,Raw,M-O,101.6,105,195,202.5,-207.5,202.5,120,125,-130,125,230,242.5,250,250,577.5,SBD,Cork City Powerlifting Club
13,Robin Martinjak,M,,Ireland,Raw,M-O,94.8,105,175,180,185,185,120,127.5,-130,127.5,215,225,235,235,547.5,SBD,
14,Kevin Barry,M,,Ireland,Raw,M-O,99.6,105,182.5,190,200,200,112.5,-120,-120,112.5,210,220,227.5,227.5,540,SBD,Maximum Results
15,Eoghan O'Connor,M,,Ireland,Raw,M-O,98.6,105,172.5,185,190,190,110,-115,115,115,205,215,225,225,530,SBD,The Garage
16,John O'Neill,M,,Ireland,Raw,M-O,100.4,105,160,170,180,180,115,120,127.5,127.5,200,210,220,220,527.5,SBD,O'Neill Powerlifting
17,Gary Williamson,M,,Ireland,Raw,M-O,100.6,105,180,192.5,200,200,120,122.5,-125,122.5,180,195,205,205,527.5,SBD,Cork City Powerlifting Club
18,Jamie Cuddy,M,,Ireland,Raw,M-O,101.4,105,-150,150,155,155,112.5,115,120,120,200,210,225,225,500,SBD,EQ Strength & Conditioning
1,Marc Keys,M,,Ireland,Raw,M-O,118.2,120,240,255,265,265,180,,,180,260,280,-290,280,725,SBD,
2,Donal O'Brien,M,,Ireland,Raw,M-O,111.2,120,235,-245,245,245,145,152.5,-160,152.5,250,260,-267.5,260,657.5,SBD,Cork City Powerlifting Club
3,Tom Daly,M,,Ireland,Raw,M-O,111.2,120,200,210,222.5,222.5,150,160,162.5,162.5,250,260,-272.5,260,645,SBD,Studio One
4,Noel Kelly,M,,Ireland,Raw,M-O,110.2,120,200,210,220,220,140,142.5,145,145,210,220,230,230,595,SBD,Studio One
5,Conor O'Shea,M,,Ireland,Raw,M-O,119.6,120,190,200,207.5,207.5,100,107.5,-110,107.5,190,-205,205,205,520,SBD,Dublin Strength & Conditioning
6,Padraig Tansey,M,,Ireland,Raw,M-O,118.4,120,165,172.5,-180,172.5,70,-80,80,80,175,185,-195,185,437.5,SBD,Storm Body Fitness
DQ,Derrie Sutton,M,,Ireland,Raw,M-O,113,120,255,270,-277.5,270,-130,-132.5,-132.5,,285,300,-307.5,300,,SBD,Revolution Fitness
1,Kevin Letford,M,,Ireland,Raw,M-O,126,120+,220,230,240,240,120,127.5,132.5,132.5,220,230,240,240,612.5,SBD,EverStrength Training
2,Adam Glennon,M,,Ireland,Raw,M-O,124.4,120+,200,220,227.5,227.5,115,125,127.5,127.5,225,245,-255,245,600,SBD,
