Division,WeightClassKg,Place,Name,Team,BodyweightKg,Best3SquatKg,Best3BenchKg,Best3DeadliftKg,TotalKg,Equipment,Event,Sex
Boys,51.71,1,Cameron Griffin,College Station,51.53,138.35,49.9,136.08,324.32,Single-ply,SBD,M
Boys,51.71,2,Sam Morris,College Station,51.44,124.74,72.57,122.47,319.78,Single-ply,SBD,M
Boys,51.71,3,Seth Solis,Troy,45.54,124.74,68.04,115.67,308.44,Single-ply,SBD,M
Boys,51.71,4,Colton Gober,Troy,48.53,86.18,40.82,106.59,233.6,Single-ply,SBD,M
Boys,51.71,5,Ty Zimmer,Troy,46.45,72.57,38.56,92.99,204.12,Single-ply,SBD,M
Boys,51.71,DQ,Dylan Porter,Alvarado,51.35,122.47,,,,Single-ply,SBD,M
Boys,55.79,1,Miguel Contreras,Robinson,53.8,161.03,79.38,163.29,403.7,Single-ply,SBD,M
Boys,59.87,2,Grady Rhoden,Alvarado,55.97,136.08,68.04,154.22,358.34,Single-ply,SBD,M
Boys,55.79,3,Jesus Tonche,Waco Connally,54.61,129.27,77.11,149.69,356.07,Single-ply,SBD,M
Boys,55.79,4,Blaine Wootan,College Station,55.25,131.54,63.5,122.47,317.51,Single-ply,SBD,M
Boys,55.79,5,Jacob Powell,Little River Academy,54.98,115.67,58.97,124.74,299.37,Single-ply,SBD,M
Boys,67.13,1,Colton Bauer,Lorena,60.06,136.08,77.11,149.69,362.87,Single-ply,SBD,M
Boys,59.87,2,Judge Hansen,College Station,58.79,129.27,79.38,147.42,356.07,Single-ply,SBD,M
Boys,67.13,3,Aaron Bettge,Waco Reicher Catholic,60.06,138.35,79.38,136.08,353.8,Single-ply,SBD,M
Boys,59.87,4,Joseph Bravo,Waco Reicher Catholic,57.61,124.74,65.77,145.15,335.66,Single-ply,SBD,M
Boys,59.87,5,Dylan Fuschino,Waco Connally,57.79,129.27,63.5,131.54,324.32,Single-ply,SBD,M
Boys,59.87,6,Nolan Jackson,Lorena,58.24,124.74,68.04,124.74,317.51,Single-ply,SBD,M
Boys,59.87,7,Gage Childs,Lorena,57.06,104.33,63.5,117.93,285.76,Single-ply,SBD,M
Boys,59.87,8,Jossie Palacios,Mexia,59.24,90.72,65.77,124.74,281.23,Single-ply,SBD,M
Boys,67.13,1,Cody Brooks,Robinson,66.13,204.12,129.27,195.04,528.44,Single-ply,SBD,M
Boys,67.13,2,Lane Fikes,Robinson,67.13,183.7,95.25,217.72,496.68,Single-ply,SBD,M
Boys,67.13,3,Noah Contella,Waco Reicher Catholic,66.32,190.51,99.79,181.44,471.74,Single-ply,SBD,M
Boys,67.13,4,Roy Ward,Waco Reicher Catholic,65.5,181.44,97.52,181.44,460.4,Single-ply,SBD,M
Boys,74.84,5,Jeremy Fuentes,Cleburne,67.31,172.37,90.72,181.44,444.52,Single-ply,SBD,M
Boys,67.13,6,Travis Tate,College Station,66.13,158.76,95.25,176.9,430.91,Single-ply,SBD,M
Boys,67.13,7,Philip Carpenter,Waco La Vega,66.68,170.1,81.65,174.63,426.38,Single-ply,SBD,M
Boys,67.13,8,Sam Beal,College Station,66.41,154.22,99.79,165.56,419.57,Single-ply,SBD,M
Boys,67.13,9,Hunter Solano,Waco Reicher Catholic,63.96,154.22,79.38,170.1,403.7,Single-ply,SBD,M
Boys,67.13,10,Harley Eldridge,Waco Connally,62.87,129.27,83.91,154.22,367.41,Single-ply,SBD,M
Boys,67.13,11,Aaron Sharp,Little River Academy,67.04,129.27,79.38,156.49,365.14,Single-ply,SBD,M
Boys,67.13,12,Darius Dorsey,Mexia,67.04,136.08,92.99,136.08,365.14,Single-ply,SBD,M
Boys,67.13,13,River Grant,Cleburne,65.59,136.08,79.38,140.61,356.07,Single-ply,SBD,M
Boys,67.13,14,Nick Harris,Lorena,61.05,138.35,81.65,131.54,351.53,Single-ply,SBD,M
Boys,67.13,15,Dakota Runnels,Cleburne,62.87,120.2,74.84,151.95,347,Single-ply,SBD,M
Boys,74.84,16,Desmond Harris,Waco Connally,67.22,136.08,63.5,140.61,340.19,Single-ply,SBD,M
Boys,67.13,17,Chase Randolph,Little River Academy,63.68,131.54,68.04,136.08,335.66,Single-ply,SBD,M
Boys,74.84,1,Hunter Work,Robinson,73.75,210.92,151.95,204.12,566.99,Single-ply,SBD,M
Boys,74.84,2,Da'Mario Victorian,Little River Academy,73.03,185.97,122.47,208.65,517.1,Single-ply,SBD,M
Boys,74.84,3,Michael Fitzhugh,Waco Reicher Catholic,72.21,190.51,117.93,201.85,510.29,Single-ply,SBD,M
Boys,74.84,4,Marco Castro,Waco Reicher Catholic,73.21,192.78,113.4,201.85,508.02,Single-ply,SBD,M
Boys,74.84,5,Raynard Smith,Waco La Vega,73.48,197.31,108.86,199.58,505.76,Single-ply,SBD,M
Boys,74.84,6,Rajah Preciado,College Station,70.85,165.56,97.52,176.9,439.98,Single-ply,SBD,M
Boys,82.1,7,Larry Reid,Robinson,74.93,140.61,92.99,154.22,387.82,Single-ply,SBD,M
Boys,74.84,8,Jorge Hernandes,Cleburne,71.67,136.08,70.31,140.61,347,Single-ply,SBD,M
Boys,74.84,9,Tommy Burns,Lorena,69.85,131.54,77.11,129.27,337.93,Single-ply,SBD,M
Boys,74.84,10,JaColby Forge,Mexia,70.67,122.47,70.31,142.88,335.66,Single-ply,SBD,M
Boys,74.84,DQ,Zach Smith #11,Little River Academy,70.49,,,,,Single-ply,SBD,M
Boys,82.1,1,Alex O'Neill,Waco Reicher Catholic,81.65,222.26,151.95,235.87,610.08,Single-ply,SBD,M
Boys,82.1,2,Jordan Jeffery,College Station,81.47,174.63,92.99,181.44,449.06,Single-ply,SBD,M
Boys,82.1,3,Manny Garcia,Waco La Vega,80.56,176.9,97.52,163.29,437.72,Single-ply,SBD,M
Boys,82.1,4,Matt Moseley,Lorena,78.02,154.22,83.91,190.51,428.64,Single-ply,SBD,M
Boys,82.1,5,Buddy Catlett,Little River Academy,79.29,138.35,97.52,149.69,385.55,Single-ply,SBD,M
Boys,82.1,6,Cody Neal,Mexia,78.56,106.59,63.5,115.67,285.76,Single-ply,SBD,M
Boys,82.1,DQ,Josh Scherer,Little River Academy,77.47,192.78,113.4,,,Single-ply,SBD,M
Boys,82.1,DQ,Braxton Fuller,Alvarado,78.29,136.08,,,,Single-ply,SBD,M
Boys,82.1,DQ,Michael Autenrieth,Waco Connally,80.01,,,,,Single-ply,SBD,M
Boys,99.79,1,Gerald Horne II,Waco La Vega,89.9,240.4,151.95,240.4,632.76,Single-ply,SBD,M
Boys,89.81,2,Zach Haler,Cleburne,86.82,249.48,136.08,238.14,623.69,Single-ply,SBD,M
Boys,89.81,3,Darian Robinson,Waco Connally,89.54,206.38,133.81,235.87,576.06,Single-ply,SBD,M
Boys,89.81,4,Desmond Payton,College Station,84.73,238.14,102.06,231.33,571.53,Single-ply,SBD,M
Boys,89.81,5,Ricky Thompson,Robinson,86.73,208.65,124.74,235.87,569.26,Single-ply,SBD,M
Boys,99.79,6,Cody Williams,Lorena,89.99,192.78,117.93,188.24,498.95,Single-ply,SBD,M
Boys,89.81,7,Robert Perez,Waco Reicher Catholic,87.36,195.04,111.13,172.37,478.54,Single-ply,SBD,M
Boys,89.81,8,Griffin Smith,Troy,87.91,149.69,90.72,142.88,383.29,Single-ply,SBD,M
Boys,89.81,9,Cody Trammell,Troy,86.36,142.88,74.84,147.42,365.14,Single-ply,SBD,M
Boys,89.81,10,Levi Darby,Mexia,83.91,133.81,70.31,145.15,349.27,Single-ply,SBD,M
Boys,89.81,11,Rahi Patel,Mexia,88.36,90.72,90.72,129.27,310.71,Single-ply,SBD,M
Boys,89.81,DQ,Robert Robertson,Mexia,83.19,226.8,,,,Single-ply,SBD,M
Boys,89.81,DQ,Bailey Guynes,Troy,82.55,,,,,Single-ply,SBD,M
Boys,99.79,1,D'Andre Minnitt,Waco La Vega,96.71,260.82,136.08,267.62,664.51,Single-ply,SBD,M
Boys,99.79,2,Shaq Walker,Waco La Vega,98.61,258.55,122.47,254.01,635.03,Single-ply,SBD,M
Boys,99.79,3,Jeff Stark,Troy,90.85,210.92,165.56,183.7,560.19,Single-ply,SBD,M
Boys,99.79,4,Wayne Ellard,College Station,94.8,226.8,140.61,192.78,560.19,Single-ply,SBD,M
Boys,99.79,5,Husbaldo Ruiz,Cleburne,97.43,199.58,140.61,215.46,555.65,Single-ply,SBD,M
Boys,99.79,6,Andrew Sevener,Alvarado,95.89,233.6,108.86,172.37,514.83,Single-ply,SBD,M
Boys,99.79,7,Daniel Barrientos,College Station,93.89,195.04,111.13,174.63,480.81,Single-ply,SBD,M
Boys,99.79,8,Michael Padgett,Troy,99.61,190.51,115.67,163.29,469.47,Single-ply,SBD,M
Boys,99.79,9,William Wake,Waco La Vega,94.98,181.44,131.54,147.42,460.4,Single-ply,SBD,M
Boys,99.79,10,Marshal Weatherby,Alvarado,91.22,158.76,108.86,181.44,449.06,Single-ply,SBD,M
Boys,99.79,11,Jared Simpson,Robinson,92.53,172.37,81.65,181.44,435.45,Single-ply,SBD,M
Boys,99.79,12,Kameron Smith,Chilton,97.43,161.03,117.93,154.22,433.18,Single-ply,SBD,M
Boys,99.79,13,Arkiel Winn,Mexia,95.07,149.69,74.84,167.83,392.36,Single-ply,SBD,M
Boys,99.79,14,Lewis Ferrell,Mexia,99.61,113.4,83.91,142.88,340.19,Single-ply,SBD,M
Boys,109.77,15,Chris Robinson #5,Waco Connally,99.97,276.69,,,276.69,Single-ply,S,M
Boys,99.79,DQ,Thomas Hernandez,Troy,95.89,163.29,102.06,,,Single-ply,SBD,M
Boys,109.77,1,Ryan de la Garza,Waco Connally,108.41,301.64,163.29,235.87,700.8,Single-ply,SBD,M
Boys,109.77,2,Collin McMillan,Little River Academy,108.14,238.14,142.88,254.01,635.03,Single-ply,SBD,M
Boys,109.77,3,Cutter Shaw,Waco Reicher Catholic,109.77,226.8,142.88,204.12,573.79,Single-ply,SBD,M
Boys,109.77,4,Cortlund Rice,Mexia,107.68,206.38,147.42,204.12,557.92,Single-ply,SBD,M
Boys,109.77,5,Byron Bryant,Waco La Vega,104.78,213.19,136.08,183.7,532.97,Single-ply,SBD,M
Boys,109.77,6,Brazos Fuller,Alvarado,107.59,204.12,124.74,181.44,510.29,Single-ply,SBD,M
Boys,109.77,7,Preston Gaskamp,Robinson,104.69,174.63,115.67,181.44,471.74,Single-ply,SBD,M
Boys,109.77,8,Ricky Reyes,Mexia,107.5,170.1,108.86,192.78,471.74,Single-ply,SBD,M
Boys,109.77,9,Abram Villescaz,Waco Reicher Catholic,108.86,181.44,83.91,206.38,471.74,Single-ply,SBD,M
Boys,109.77,10,Diego Gutierrez,Robinson,104.33,181.44,104.33,181.44,467.2,Single-ply,SBD,M
Boys,109.77,11,Rolando Duran,Mexia,106.28,170.1,102.06,151.95,424.11,Single-ply,SBD,M
Boys,109.77,12,Marquis McCullen,Mexia,102.6,151.95,74.84,181.44,408.23,Single-ply,SBD,M
Boys,109.77,13,Jack Pirtle,Little River Academy,109.5,163.29,83.91,147.42,394.63,Single-ply,SBD,M
Boys,124.74,1,Kyle Parkinson,Cleburne,121.83,258.55,170.1,238.14,666.78,Single-ply,SBD,M
Boys,124.74,2,Seth White,Alvarado,114.49,272.16,149.69,226.8,648.64,Single-ply,SBD,M
Boys,124.74,3,Garrett Brunson,Lorena,117.03,240.4,138.35,213.19,591.94,Single-ply,SBD,M
Boys,124.74,4,Logan Martinez,Little River Academy,123.47,185.97,124.74,161.03,471.74,Single-ply,SBD,M
Boys,124.74,5,Chirstian Barco,Mexia,111.95,151.95,117.93,158.76,428.64,Single-ply,SBD,M
Boys,124.74,6,Andrew French #2,Waco Reicher Catholic,115.85,158.76,88.45,172.37,419.57,Single-ply,SBD,M
Boys,124.74,7,Micah Lasater,Alvarado,117.66,145.15,102.06,158.76,405.97,Single-ply,SBD,M
Boys,124.74+,1,Shane Murphy,Robinson,162.3,303.91,208.65,240.4,752.96,Single-ply,SBD,M
Boys,124.74+,2,Grayson Eaton,Little River Academy,165.02,285.76,158.76,226.8,671.32,Single-ply,SBD,M
Boys,124.74+,3,Dwight Holder,Waco La Vega,131.45,288.03,156.49,210.92,655.44,Single-ply,SBD,M
Boys,124.74+,4,Marcus Robinson,Waco Connally,135.81,272.16,147.42,231.33,650.91,Single-ply,SBD,M
Boys,124.74+,5,Tevin Boone,Cleburne,130.45,249.48,138.35,235.87,623.69,Single-ply,SBD,M
Boys,124.74+,6,Narisco Molina,Waco Connally,132.36,235.87,104.33,158.76,498.95,Single-ply,SBD,M
Boys,124.74+,7,Brandon Cross,Alvarado,134.81,181.44,113.4,158.76,453.59,Single-ply,SBD,M
Boys,124.74+,DQ,Bryce Johnson #1,Alvarado,126.64,181.44,,,,Single-ply,SBD,M
