Division,WeightClassKg,Place,Name,Team,BodyweightKg,Best3SquatKg,Best3BenchKg,Best3DeadliftKg,TotalKg,Equipment,Event,Sex
Boys,51.71,1,Carlos Raya,Plainview,51.71,120.2,92.99,122.47,335.66,Single-ply,SBD,M
Boys,51.71,2,Anthony Washington,Plainview,49.9,102.06,56.7,138.35,297.1,Single-ply,SBD,M
Boys,51.71,3,Robert Sanchez #4,Andrews,51.53,104.33,68.04,113.4,285.76,Single-ply,SBD,M
Boys,51.71,4,Matthew Negrete,Seagraves,50.17,92.99,56.7,106.59,256.28,Single-ply,SBD,M
Boys,51.71,5,Derek Adame,Plainview,49.44,95.25,52.16,97.52,244.94,Single-ply,SBD,M
Boys,51.71,6,Fabian Castianos,Sunray,44.81,95.25,43.09,97.52,235.87,Single-ply,SBD,M
Boys,51.71,7,Davin Luna,Plainview,50.8,81.65,43.09,102.06,226.8,Single-ply,SBD,M
Boys,51.71,8,Doran Lindsey,Slaton,50.26,88.45,38.56,83.91,210.92,Single-ply,SBD,M
Boys,55.79,1,Jordan Ruiz,Seagraves,55.52,190.51,117.93,219.99,528.44,Single-ply,SBD,M
Boys,55.79,2,Shirmar Jennings,Plainview,55.79,201.85,115.67,210.92,528.44,Single-ply,SBD,M
Boys,55.79,3,Reid Clanton,Midland Greenwood,54.52,154.22,83.91,167.83,405.97,Single-ply,SBD,M
Boys,59.87,4,Zane Ponder,Plainview,56.02,142.88,63.5,147.42,353.8,Single-ply,SBD,M
Boys,55.79,5,Salvador Antillon,Seminole,53.52,129.27,77.11,136.08,342.46,Single-ply,SBD,M
Boys,55.79,6,John Nailor,Midland Greenwood,53.8,120.2,68.04,124.74,312.98,Single-ply,SBD,M
Boys,55.79,7,Hector Bustillos,Sunray,53.16,117.93,49.9,136.08,303.91,Single-ply,SBD,M
Boys,55.79,8,Diago Lara,Midland Lee,53.25,97.52,68.04,113.4,278.96,Single-ply,SBD,M
Boys,55.79,9,Justin Hall,Midland Lee,54.25,97.52,61.23,113.4,272.16,Single-ply,SBD,M
Boys,55.79,10,Daniel Patterson #1,Sunray,55.79,99.79,52.16,102.06,254.01,Single-ply,SBD,M
Boys,55.79,DQ,Dalton Jenkins,Plainview,55.34,97.52,52.16,95.25,,Single-ply,SBD,M
Boys,55.79,DQ,Luis Castro,Plainview,55.34,102.06,61.23,113.4,,Single-ply,SBD,M
Boys,59.87,DQ,Jamarrion Jackson,Midland Lee,55.97,102.06,45.36,,,Single-ply,SBD,M
Boys,59.87,1,Eli Rodriguez,Seagraves,59.78,147.42,86.18,158.76,392.36,Single-ply,SBD,M
Boys,59.87,2,Cole Byerly,Midland Greenwood,58.69,142.88,90.72,156.49,390.09,Single-ply,SBD,M
Boys,59.87,3,Garrett Ely,Sunray,59.24,113.4,79.38,140.61,333.39,Single-ply,SBD,M
Boys,67.13,4,Michael Nagy,Seminole,60.06,102.06,90.72,133.81,326.59,Single-ply,SBD,M
Boys,59.87,5,Michael Condarco,Seminole,56.34,113.4,70.31,124.74,308.44,Single-ply,SBD,M
Boys,59.87,6,Carson Williams,Plainview,59.87,113.4,70.31,120.2,303.91,Single-ply,SBD,M
Boys,59.87,7,Kevin Flores,Seminole,59.78,113.4,61.23,124.74,299.37,Single-ply,SBD,M
Boys,59.87,8,Boston Justus,Wolfforth Frenship,57.15,111.13,63.5,99.79,274.42,Single-ply,SBD,M
Boys,59.87,9,Preston Perez,Midland Greenwood,57.24,68.04,72.57,74.84,215.46,Single-ply,SBD,M
Boys,59.87,DQ,Alexander Garcia,Plainview,58.06,113.4,61.23,108.86,,Single-ply,SBD,M
Boys,59.87,DQ,Joseph Partin,Plainview,58.33,,,,,Single-ply,SBD,M
Boys,67.13,1,Thomas Garcia,Midland,66.04,190.51,127.01,201.85,519.36,Single-ply,SBD,M
Boys,67.13,2,Karlonte Jackson,Anton,66.95,201.85,95.25,201.85,498.95,Single-ply,SBD,M
Boys,74.84,3,Lincoln Zapata,Plainview,67.31,181.44,104.33,192.78,478.54,Single-ply,SBD,M
Boys,67.13,4,Corey Barker,Clarendon,65.14,165.56,111.13,183.7,460.4,Single-ply,SBD,M
Boys,67.13,5,Gene Williams,Slaton,62.14,183.7,90.72,181.44,455.86,Single-ply,SBD,M
Boys,67.13,6,Alex Valdez,Andrews,66.95,165.56,95.25,181.44,442.25,Single-ply,SBD,M
Boys,67.13,7,Franky Medina,Dalhart,66.86,170.1,95.25,149.69,415.04,Single-ply,SBD,M
Boys,67.13,8,Julian Nevarez,Dumas,63.5,131.54,99.79,181.44,412.77,Single-ply,SBD,M
Boys,67.13,9,Derrick Siebman,Childress,61.14,151.95,86.18,172.37,410.5,Single-ply,SBD,M
Boys,67.13,10,Dominic Baca,Dalhart,67.04,124.74,95.25,174.63,394.63,Single-ply,SBD,M
Boys,67.13,11,Tristan Bollinger,Midland,61.78,145.15,83.91,154.22,383.29,Single-ply,SBD,M
Boys,67.13,12,Richard Tenorio,Midland,63.78,147.42,83.91,151.95,383.29,Single-ply,SBD,M
Boys,67.13,13,Cameron Hurd,Midland,65.5,145.15,72.57,158.76,376.48,Single-ply,SBD,M
Boys,67.13,14,Jose Hernandez #2,Midland Greenwood,61.78,127.01,79.38,163.29,369.68,Single-ply,SBD,M
Boys,67.13,15,Abraham Posadas,Canyon,66.09,124.74,90.72,149.69,365.14,Single-ply,SBD,M
Boys,67.13,16,Kaleb Rodriguez,Midland Lee,66.22,142.88,68.04,124.74,335.66,Single-ply,SBD,M
Boys,67.13,17,Cole McLeroy,Denver City,60.51,113.4,61.23,136.08,310.71,Single-ply,SBD,M
Boys,67.13,18,Bryce Kiser,Wolfforth Frenship,65.86,120.2,61.23,129.27,310.71,Single-ply,SBD,M
Boys,67.13,19,Jonathan Esquivel,Denver City,64.5,102.06,74.84,117.93,294.84,Single-ply,SBD,M
Boys,67.13,20,Patrick Fleming,Anton,61.6,92.99,49.9,140.61,283.5,Single-ply,SBD,M
Boys,67.13,21,Ethan Jones,Midland Greenwood,65.05,106.59,68.04,104.33,278.96,Single-ply,SBD,M
Boys,67.13,22,Caden Love,Wolfforth Frenship,66.5,97.52,70.31,106.59,274.42,Single-ply,SBD,M
Boys,67.13,23,Tomas Vasquez,Andrews,60.24,111.13,54.43,104.33,269.89,Single-ply,SBD,M
Boys,67.13,24,Colton Kissick,Seminole,61.78,115.67,56.7,97.52,269.89,Single-ply,SBD,M
Boys,67.13,DQ,Eric Vega,Plainview,67.13,165.56,88.45,170.1,,Single-ply,SBD,M
Boys,67.13,DQ,Steven Vallejo,Plainview,65.32,136.08,65.77,158.76,,Single-ply,SBD,M
Boys,67.13,DQ,Jordan Mora,Plainview,66.22,108.86,56.7,95.25,,Single-ply,SBD,M
Boys,67.13,DQ,Zavier Rosas,Plainview,62.14,102.06,70.31,122.47,,Single-ply,SBD,M
Boys,67.13,DQ,Eric Alcozer,Plainview,63.05,90.72,61.23,108.86,,Single-ply,SBD,M
Boys,67.13,DQ,Trinidad Sentena,Midland Lee,62.51,102.06,90.72,,,Single-ply,SBD,M
Boys,67.13,DQ,Cesar Payen,Midland Lee,63.87,108.86,,,,Single-ply,SBD,M
Boys,74.84,1,Brandon Guerrero,Childress,72.39,197.31,111.13,226.8,535.24,Single-ply,SBD,M
Boys,74.84,2,Guillermo Davila,Dalhart,74.75,195.04,106.59,195.04,496.68,Single-ply,SBD,M
Boys,74.84,3,Xzavier Martinez,Midland,69.67,176.9,115.67,192.78,485.34,Single-ply,SBD,M
Boys,74.84,4,Zack Ponder,Plainview,73.12,183.7,99.79,192.78,476.27,Single-ply,SBD,M
Boys,74.84,5,Dillon Stevens,Wolfforth Frenship,74.48,181.44,106.59,181.44,469.47,Single-ply,SBD,M
Boys,74.84,6,Nathan Guerra,Slaton,72.76,174.63,111.13,174.63,460.4,Single-ply,SBD,M
Boys,74.84,7,Joe Macias,Andrews,70.49,165.56,106.59,174.63,446.79,Single-ply,SBD,M
Boys,74.84,8,Jd Lopez,Childress,73.57,167.83,111.13,167.83,446.79,Single-ply,SBD,M
Boys,74.84,9,Daniel Lockhart #1,Midland,69.94,151.95,90.72,183.7,426.38,Single-ply,SBD,M
Boys,74.84,10,Ethan Trotter,Andrews,70.22,165.56,92.99,165.56,424.11,Single-ply,SBD,M
Boys,74.84,11,Nicky Hoang,Midland,71.76,156.49,77.11,183.7,417.3,Single-ply,SBD,M
Boys,74.84,12,Holt Eads,Midland,74.75,142.88,83.91,183.7,410.5,Single-ply,SBD,M
Boys,74.84,13,Riley Justice,Midland Lee,68.04,151.95,90.72,142.88,385.55,Single-ply,SBD,M
Boys,74.84,14,Stphen Ramirez,Midland Lee,70.76,145.15,88.45,120.2,353.8,Single-ply,SBD,M
Boys,74.84,15,Christian Cortez,Denver City,68.86,124.74,83.91,142.88,351.53,Single-ply,SBD,M
Boys,74.84,16,Emmanuel Castillo,Sunray,68.49,140.61,68.04,136.08,344.73,Single-ply,SBD,M
Boys,74.84,17,Dominique de la Rosa #1,Sunray,74.84,117.93,72.57,133.81,324.32,Single-ply,SBD,M
Boys,74.84,18,Vince Urbina,Andrews,74.84,129.27,65.77,124.74,319.78,Single-ply,SBD,M
Boys,74.84,19,Fernando Vazquez,Denver City,72.21,142.88,70.31,102.06,315.25,Single-ply,SBD,M
Boys,74.84,20,Joaquin Ramirez,Seminole,72.57,92.99,68.04,145.15,306.17,Single-ply,SBD,M
Boys,74.84,21,Oscar Hernandez,Denver City,68.49,108.86,65.77,124.74,299.37,Single-ply,SBD,M
Boys,74.84,22,Iniel Bustos,Denver City,73.48,108.86,70.31,106.59,285.76,Single-ply,SBD,M
Boys,74.84,23,Stone Elquezebal,Midland Greenwood,69.49,102.06,72.57,102.06,276.69,Single-ply,SBD,M
Boys,74.84,24,Justin Riley,Denver City,72.76,83.91,47.63,83.91,215.46,Single-ply,SBD,M
Boys,74.84,DQ,Ethan Andrade,Plainview,70.76,133.81,81.65,151.95,,Single-ply,SBD,M
Boys,74.84,DQ,Alex Greenwood,Andrews,68.13,113.4,,,,Single-ply,SBD,M
Boys,89.81,1,Domingo Saucedo,Plainview,82.24,226.8,138.35,210.92,576.06,Single-ply,SBD,M
Boys,82.1,2,Sam Grimes,Midland,81.28,161.03,111.13,185.97,458.13,Single-ply,SBD,M
Boys,82.1,3,Bailey Settle,Plainview,78.11,179.17,97.52,174.63,451.32,Single-ply,SBD,M
Boys,82.1,4,Ramon Juarez,Seminole,75.84,158.76,102.06,188.24,449.06,Single-ply,SBD,M
Boys,82.1,5,John David Crenshaw,Andrews,80.38,161.03,111.13,172.37,444.52,Single-ply,SBD,M
Boys,82.1,6,Israel Terrazas,Midland,78.65,172.37,88.45,165.56,426.38,Single-ply,SBD,M
Boys,82.1,7,Dexter Longley,Seminole,76.75,163.29,97.52,161.03,421.84,Single-ply,SBD,M
Boys,82.1,8,Emilio Solis,Midland,81.74,158.76,92.99,170.1,421.84,Single-ply,SBD,M
Boys,82.1,9,David Montel,Anton,82.01,151.95,92.99,174.63,419.57,Single-ply,SBD,M
Boys,82.1,10,Alex Guerrero #2,Childress,80.56,158.76,95.25,163.29,417.3,Single-ply,SBD,M
Boys,82.1,11,Andrew Bichsel,White Deer,77.38,147.42,104.33,161.03,412.77,Single-ply,SBD,M
Boys,82.1,12,Justin Goodwin,Childress,81.1,158.76,99.79,149.69,408.23,Single-ply,SBD,M
Boys,82.1,13,Marcial Salinas,Slaton,81.74,149.69,77.11,163.29,390.09,Single-ply,SBD,M
Boys,82.1,14,Alex Quinonez,Seagraves,79.2,138.35,92.99,142.88,374.21,Single-ply,SBD,M
Boys,82.1,15,Jonathon Anderson,Sunray,77.02,113.4,92.99,142.88,349.27,Single-ply,SBD,M
Boys,82.1,16,Aaron Arellanes,Dumas,77.47,127.01,72.57,136.08,335.66,Single-ply,SBD,M
Boys,82.1,17,Juan Ramirez,Wolfforth Frenship,75.75,111.13,74.84,120.2,306.17,Single-ply,SBD,M
Boys,82.1,18,Jose Samarripas,Wolfforth Frenship,81.83,124.74,54.43,102.06,281.23,Single-ply,SBD,M
Boys,82.1,19,Caleb McDaniel,Wolfforth Frenship,80.56,90.72,72.57,102.06,265.35,Single-ply,SBD,M
Boys,82.1,DQ,J'Ryn Vela,Plainview,75.3,129.27,72.57,156.49,,Single-ply,SBD,M
Boys,82.1,DQ,Daniel Gonzales,Plainview,79.83,154.22,83.91,142.88,,Single-ply,SBD,M
Boys,82.1,DQ,Payton Thornton,Plainview,80.74,113.4,70.31,117.93,,Single-ply,SBD,M
Boys,82.1,DQ,Rosendo Cantu,Plainview,82.1,120.2,81.65,140.61,,Single-ply,SBD,M
Boys,89.81,1,Christian Galvan,Plainview,88.45,226.8,129.27,188.24,544.31,Single-ply,SBD,M
Boys,99.79,2,Federico Castro,Plainview,89.9,208.65,122.47,204.12,535.24,Single-ply,SBD,M
Boys,89.81,3,Coleton Whitlock,Midland,87.82,199.58,115.67,199.58,514.83,Single-ply,SBD,M
Boys,89.81,4,Rickey Harcrow,Midland Greenwood,82.92,192.78,115.67,199.58,508.02,Single-ply,SBD,M
Boys,89.81,5,Dustin Rea,Midland Greenwood,83.28,190.51,120.2,197.31,508.02,Single-ply,SBD,M
Boys,89.81,6,Dalton Driver,Seminole,85.37,192.78,106.59,199.58,498.95,Single-ply,SBD,M
Boys,89.81,7,Ethan Barnes,Plainview,89.81,172.37,115.67,208.65,496.68,Single-ply,SBD,M
Boys,89.81,8,Quenton Valentine,Plainview,89.27,199.58,115.67,176.9,492.15,Single-ply,SBD,M
Boys,89.81,9,Mason Montgomery,Midland,85.37,183.7,111.13,195.04,489.88,Single-ply,SBD,M
Boys,89.81,10,Gabe Marquez,Dalhart,88.27,190.51,108.86,181.44,480.81,Single-ply,SBD,M
Boys,89.81,11,Cade McCallie,Canyon,83.1,183.7,99.79,174.63,458.13,Single-ply,SBD,M
Boys,89.81,12,Sean Strickland,Midland Greenwood,89.63,161.03,86.18,181.44,428.64,Single-ply,SBD,M
Boys,89.81,13,Chris Spencer,Canyon,85.09,170.1,99.79,151.95,421.84,Single-ply,SBD,M
Boys,89.81,14,Travis Sullivan,Sunray,83.19,174.63,83.91,161.03,419.57,Single-ply,SBD,M
Boys,89.81,15,Dalton Gray,Anton,84.73,154.22,83.91,176.9,415.04,Single-ply,SBD,M
Boys,89.81,16,Coby Crab,Slaton,86.91,147.42,83.91,181.44,412.77,Single-ply,SBD,M
Boys,89.81,17,Israel Rosalez,Seagraves,87.72,158.76,99.79,145.15,403.7,Single-ply,SBD,M
Boys,89.81,18,Trey Leighton,Childress,89.81,161.03,83.91,158.76,403.7,Single-ply,SBD,M
Boys,89.81,19,David Camargo,Slaton,86.55,156.49,86.18,142.88,385.55,Single-ply,SBD,M
Boys,89.81,20,Cesar Calderon,Sunray,86.82,158.76,83.91,142.88,385.55,Single-ply,SBD,M
Boys,89.81,21,Reagan Lambert,Childress,89.27,124.74,83.91,138.35,347,Single-ply,SBD,M
Boys,89.81,22,Duston Vargas,Andrews,84.64,131.54,83.91,124.74,340.19,Single-ply,SBD,M
Boys,89.81,23,TJ Soto,Midland Lee,88,102.06,88.45,147.42,337.93,Single-ply,SBD,M
Boys,89.81,24,Roberto Mendez,Denver City,88.18,102.06,88.45,136.08,326.59,Single-ply,SBD,M
Boys,89.81,DQ,Coleman Townsend,Plainview,88.45,174.63,90.72,151.95,,Single-ply,SBD,M
Boys,89.81,DQ,David Galvan,Plainview,87.54,113.4,72.57,136.08,,Single-ply,SBD,M
Boys,89.81,DQ,Daniel Ratliff,Plainview,88.9,156.49,83.91,156.49,,Single-ply,SBD,M
Boys,89.81,DQ,Rudy Vasquez,Plainview,86.45,192.78,102.06,206.38,,Single-ply,SBD,M
Boys,89.81,DQ,Isaiah Gonzales,Plainview,85.28,192.78,104.33,183.7,,Single-ply,SBD,M
Boys,89.81,DQ,Chris Ybarra,Midland Lee,86.64,61.23,,,,Single-ply,SBD,M
Boys,89.81,DQ,Sean Salas,Plainview,88.9,,,,,Single-ply,SBD,M
Boys,89.81,DQ,Troy Velasquez,Plainview,87.54,,,,,Single-ply,SBD,M
Boys,99.79,1,Azel Alvidrez,Andrews,97.89,195.04,136.08,215.46,546.58,Single-ply,SBD,M
Boys,99.79,2,Marcus Trujillo,Dalhart,99.7,240.4,104.33,199.58,544.31,Single-ply,SBD,M
Boys,99.79,3,Aiden Lopez,Plainview,99.34,199.58,124.74,215.46,539.77,Single-ply,SBD,M
Boys,99.79,4,Eric Mendez,Plainview,99.79,199.58,115.67,215.46,530.7,Single-ply,SBD,M
Boys,99.79,5,Brendan Voss,Plainview,96.16,192.78,117.93,204.12,514.83,Single-ply,SBD,M
Boys,99.79,6,Devon Miller,Midland,98.61,183.7,102.06,190.51,476.27,Single-ply,SBD,M
Boys,99.79,7,Javier Torres,Dalhart,97.43,183.7,102.06,183.7,469.47,Single-ply,SBD,M
Boys,99.79,8,Braxton Dodson,Midland Lee,97.89,192.78,102.06,174.63,469.47,Single-ply,SBD,M
Boys,99.79,9,Marc Martinez,Seminole,94.08,170.1,133.81,156.49,460.4,Single-ply,SBD,M
Boys,99.79,10,Sergio Orozco,Dalhart,98.25,181.44,102.06,176.9,460.4,Single-ply,SBD,M
Boys,99.79,11,Saul Gallegos,Slaton,99.79,179.17,104.33,154.22,437.72,Single-ply,SBD,M
Boys,99.79,12,Kalob Brumley,Canyon,93.8,158.76,92.99,181.44,433.18,Single-ply,SBD,M
Boys,99.79,13,D'Angelo Thomas,Plainview,93.44,156.49,95.25,163.29,415.04,Single-ply,SBD,M
Boys,99.79,14,Corbin Berrones,Midland,97.25,151.95,97.52,165.56,415.04,Single-ply,SBD,M
Boys,99.79,15,Samuel Jalomo,Dumas,90.81,136.08,111.13,154.22,401.43,Single-ply,SBD,M
Boys,99.79,16,Micah Melton,Andrews,93.44,154.22,88.45,156.49,399.16,Single-ply,SBD,M
Boys,99.79,17,Tony Hyun,Midland Lee,92.26,124.74,104.33,158.76,387.82,Single-ply,SBD,M
Boys,99.79,18,Gilbert Cantu,Andrews,96.62,136.08,111.13,111.13,358.34,Single-ply,SBD,M
Boys,99.79,19,Luis Valenzuela,Andrews,96.8,149.69,81.65,127.01,358.34,Single-ply,SBD,M
Boys,99.79,20,Israel Vasquez,Denver City,99.7,102.06,83.91,142.88,328.85,Single-ply,SBD,M
Boys,99.79,21,Esteban Lopez,Andrews,91.53,111.13,83.91,122.47,317.51,Single-ply,SBD,M
Boys,99.79,DQ,Danyk Ramos,Midland,96.8,181.44,102.06,,,Single-ply,SBD,M
Boys,99.79,DQ,Ethan Embry,Plainview,92.53,,,,,Single-ply,SBD,M
Boys,99.79,DQ,Matthew Villareal,Plainview,99.34,167.83,106.59,,,Single-ply,SBD,M
Boys,109.77,1,Moises Garcia,Plainview,106.14,208.65,108.86,199.58,517.1,Single-ply,SBD,M
Boys,109.77,2,Mark Munoz,Childress,106.05,199.58,129.27,174.63,503.49,Single-ply,SBD,M
Boys,109.77,3,Matthew Cardenas,Wolfforth Frenship,102.15,183.7,129.27,172.37,485.34,Single-ply,SBD,M
Boys,109.77,4,Chris Thomas,Slaton,107.41,181.44,120.2,181.44,483.08,Single-ply,SBD,M
Boys,109.77,5,Javier Valdez,Midland,101.7,183.7,111.13,183.7,478.54,Single-ply,SBD,M
Boys,109.77,6,Tony Huynh,Seminole,107.14,174.63,115.67,185.97,476.27,Single-ply,SBD,M
Boys,109.77,7,Evan Putman,White Deer,104.51,165.56,124.74,183.7,474,Single-ply,SBD,M
Boys,109.77,8,David Ramirez,Dumas,101.88,165.56,113.4,181.44,460.4,Single-ply,SBD,M
Boys,109.77,9,Kelly Hagen,Plainview,109.77,142.88,115.67,181.44,439.98,Single-ply,SBD,M
Boys,109.77,10,Ryan Lambert,Childress,101.6,158.76,102.06,154.22,415.04,Single-ply,SBD,M
Boys,109.77,11,Eric Loza,Dumas,105.41,127.01,86.18,167.83,381.02,Single-ply,SBD,M
Boys,109.77,12,Bruno Talamantes,Dumas,108.23,133.81,88.45,136.08,358.34,Single-ply,SBD,M
Boys,109.77,DQ,Juan Lopez,Denver City,106.32,,,,,Single-ply,SBD,M
Boys,109.77,DQ,Jarrod Shaw,Anton,101.7,129.27,,,,Single-ply,SBD,M
Boys,124.74,1,Celso Guerrero,Childress,120.43,226.8,165.56,224.53,616.89,Single-ply,SBD,M
Boys,124.74,2,Chris Lara,Midland Lee,122.56,254.01,138.35,199.58,591.94,Single-ply,SBD,M
Boys,124.74,3,Lelton Mosley,Midland Lee,121.02,249.48,124.74,204.12,578.33,Single-ply,SBD,M
Boys,124.74,4,Matt Williams,Midland,119.39,219.99,120.2,226.8,566.99,Single-ply,SBD,M
Boys,124.74,5,Felix Garcia,Seminole,113.22,215.46,113.4,181.44,510.29,Single-ply,SBD,M
Boys,124.74,6,Devin Jordan #1,Wolfforth Frenship,115.03,192.78,124.74,158.76,476.27,Single-ply,SBD,M
Boys,124.74,7,Justin Barrera,Dalhart,124.38,195.04,97.52,181.44,474,Single-ply,SBD,M
Boys,124.74,8,Jesse Delgado,Plainview,124.56,183.7,111.13,154.22,449.06,Single-ply,SBD,M
Boys,124.74,9,Zachary Hensley,Wolfforth Frenship,120.11,156.49,70.31,133.81,360.61,Single-ply,SBD,M
Boys,124.74,10,Connor Kennedy,Midland Lee,122.92,136.08,86.18,106.59,328.85,Single-ply,SBD,M
Boys,124.74,DQ,Cameron Wesley,Midland,115.94,226.8,,,,Single-ply,SBD,M
Boys,124.74,DQ,Arturo Barrola,Denver City,111.86,,,,,Single-ply,SBD,M
Boys,124.74,DQ,Kyle Rickman,Seminole,112.49,138.35,,,,Single-ply,SBD,M
Boys,124.74+,1,Dallam Read,Dalhart,128.55,260.82,136.08,256.28,653.17,Single-ply,SBD,M
Boys,124.74+,2,Waylon Roberson,Midland Lee,165.47,254.01,170.1,192.78,616.89,Single-ply,SBD,M
Boys,124.74+,3,Jordan Copeland,Midland,143.7,226.8,149.69,215.46,591.94,Single-ply,SBD,M
Boys,124.74+,4,Jimbo Bentley,Childress,128,208.65,158.76,222.26,589.67,Single-ply,SBD,M
Boys,124.74+,5,Rudy Flores,Midland Lee,133.72,249.48,145.15,188.24,582.87,Single-ply,SBD,M
Boys,124.74+,6,Todd Garner,Wolfforth Frenship,145.88,235.87,142.88,192.78,571.53,Single-ply,SBD,M
Boys,124.74+,7,Taylor York,Wolfforth Frenship,131.81,215.46,138.35,215.46,569.26,Single-ply,SBD,M
Boys,124.74+,8,Easton Elrod,Seminole,144.15,190.51,111.13,204.12,505.76,Single-ply,SBD,M
Boys,124.74+,9,Cole Keenan,Dumas,129.55,161.03,133.81,204.12,498.95,Single-ply,SBD,M
Boys,124.74+,10,Jacob Molina,Midland Lee,155.49,192.78,124.74,142.88,460.4,Single-ply,SBD,M
Boys,124.74+,11,Jamie Murdock,Slaton,171.82,147.42,129.27,181.44,458.13,Single-ply,SBD,M
Boys,124.74+,12,CJ Carrillo,Midland,131.72,161.03,113.4,140.61,415.04,Single-ply,SBD,M
Boys,124.74+,13,ZR Smith,Slaton,128.55,163.29,81.65,156.49,401.43,Single-ply,SBD,M
Boys,124.74+,DQ,Patrick Hernandez,Midland Lee,135.08,142.88,,,,Single-ply,SBD,M
Boys,124.74+,DQ,Tremon Cellias,Midland Lee,125.74,197.31,,,,Single-ply,SBD,M
Boys,124.74+,DQ,Austen McNellie,Clarendon,170.28,204.12,133.81,,,Single-ply,SBD,M
