Place,Name,State,WeightClassKg,BodyweightKg,BirthDate,Age,Squat1Kg,Squat2Kg,Squat3Kg,Best3SquatKg,Bench1Kg,Bench2Kg,Bench3Kg,Best3BenchKg,Deadlift1Kg,Deadlift2Kg,Deadlift3Kg,Best3DeadliftKg,TotalKg,Bench4Kg,Deadlift4Kg,Event,Equipment,Sex,Division
1,Ria Patag,NV,56,55,,19,60,72.5,80,80,35,-42.5,42.5,42.5,90,100,117.5,117.5,240,,,SBD,Raw,F,Juniors 18-19
1,Charity Hoopes,AZ,60,59.3,,20,120,-130,-130,120,62.5,67.5,-70,67.5,112.5,117.5,-125,117.5,305,,,SBD,Raw,F,Juniors 20-23
1,Karinne Slezak,AZ,60,57.6,,38,75,80,85,85,50,52.5,-57.5,52.5,90,95,100,100,237.5,,,SBD,Raw,F,Open
1,Karinne Slezak,AZ,60,57.6,,38,75,80,85,85,50,52.5,-57.5,52.5,90,95,100,100,237.5,,,SBD,Raw,F,Submasters 35-39
1,Stacy Grover,HI,67.5,61.7,,35,-105,105,-112.5,105,57.5,62.5,-65,62.5,110,-117.5,-117.5,110,277.5,,,SBD,Raw,F,Submasters 35-39
1,Rebekah Vasey,AZ,67.5,61.2,,47,40,42.5,45,45,50,52.5,,52.5,40,42.5,45,45,142.5,,,SBD,Raw,F,Masters 45-49
1,Kelly Walters,NV,75,74,,50,115,122.5,135,135,52.5,57.5,62.5,62.5,142.5,152.5,165,165,362.5,,,SBD,Raw,F,Masters 50-54
1,Ethan Cruz,NV,60,58.8,,18,125,137.5,-140,137.5,92.5,97.5,-102.5,97.5,157.5,160,165,165,400,,,SBD,Raw,M,Juniors 18-19
1,Andrew Blanco,NV,67.5,66.7,,20,130,-145,-155,130,85,95,-97.5,95,175,190,-195,190,415,,,SBD,Raw,M,Juniors 20-23
1,Alexander Vuong,NV,75,73.1,,21,170,180,185,185,90,95,100,100,220,232.5,245,245,530,,,SBD,Raw,M,Juniors 20-23
1,Arin Zigo,NV,82.5,77.6,,19,147.5,162.5,172.5,172.5,-110,115,125,125,155,177.5,192.5,192.5,490,130,,SBD,Raw,M,Juniors 18-19
DQ,Rene Hernandez,NV,82.5,78.5,,19,-152.5,-162.5,-165,,105,110,-115,110,182.5,190,195,195,,,,SBD,Raw,M,Juniors 18-19
1,Jelani Reyes,NV,82.5,80.5,,22,-175,-175,175,175,-122.5,122.5,-135,122.5,215,225,232.5,232.5,530,,,SBD,Raw,M,Juniors 20-23
1,Tristan Johnson,AZ,100,99,,23,260,272.5,282.5,282.5,160.5,-170,-170,160.5,262.5,285,-295,285,728,,,SBD,Raw,M,Juniors 20-23
1,Janriek Bognot,NV,140,129.1,,23,247.5,265,275,275,200,210,-227.5,210,287.5,305,320,320,805,,,SBD,Raw,M,Juniors 20-23
1,Ethan Cruz,NV,60,58.8,,18,125,137.5,-140,137.5,92.5,97.5,-102.5,97.5,157.5,160,165,165,400,,,SBD,Raw,M,Open
1,Alexander Vuong,NV,75,73.1,,21,170,180,185,185,90,95,100,100,220,232.5,245,245,530,,,SBD,Raw,M,Open
2,Burton Xie,NV,75,73.3,,34,130,137.5,140,140,95,100,105,105,177.5,187.5,195,195,440,,,SBD,Raw,M,Open
1,Cy Miyake,UT,82.5,80.9,,24,-137.5,-137.5,157.5,157.5,100,112.5,-117.5,112.5,-150,165,177.5,177.5,447.5,,,SBD,Raw,M,Open
DQ,Rene Hernandez,NV,82.5,78.5,,19,-152.5,-162.5,-165,,105,110,-115,110,182.5,190,195,195,,,,SBD,Raw,M,Open
1,Tanner Peterson,NV,90,87.8,,30,185,200,210,210,137.5,150,-157.5,150,185,192.5,-220,192.5,552.5,,,SBD,Raw,M,Open
1,Damien Allen,NV,100,99.7,,23,195,-210,-210,195,137.5,147.5,-165,147.5,217.5,230,-255,230,572.5,,,SBD,Raw,M,Open
2,Stefan Sobaszek,NV,100,92.7,,26,175,190,-205,190,117.5,125,135,135,207.5,227.5,-237.5,227.5,552.5,,,SBD,Raw,M,Open
1,Jim Clifford,NV,110,108.6,,31,265,285,-297.5,285,180,190,-195,190,300,320,330,330,805,,,SBD,Raw,M,Open
2,TJ Williamson,NV,110,103,,26,245,255,262.5,262.5,25,,,25,260,275,292.5,292.5,580,,,SBD,Raw,M,Open
1,Janriek Bognot,NV,140,129.1,,23,247.5,265,275,275,200,210,-227.5,210,287.5,305,320,320,805,,,SBD,Raw,M,Open
1,Byron Mccowen,NV,100,97.3,,40,220,225,230,230,157.5,162.5,167.5,167.5,262.5,272.5,282.5,282.5,680,,,SBD,Raw,M,Masters 40-44
1,August Schmidt,AZ,100,98.8,,47,210,220,227.5,227.5,-160,-160,160,160,250,272.5,-280,272.5,660,,,SBD,Raw,M,Masters 45-49
DQ,Aciena Howard,NV,90,90,,43,-112.5,-112.5,-112.5,,-77.5,77.5,-82.5,77.5,137.5,-155,-155,137.5,,,,SBD,Wraps,F,Open
DQ,Aciena Howard,NV,90,90,,43,-112.5,-112.5,-112.5,,-77.5,77.5,-82.5,77.5,137.5,-155,-155,137.5,,,,SBD,Wraps,F,Masters 40-44
1,Giovanni Vittori,NV,90,87.6,,20,210,215,-227.5,215,125,137.5,-142.5,137.5,227.5,232.5,237.5,237.5,590,,,SBD,Wraps,M,Juniors 20-23
1,Abraham Hernandez,NV,100,99.9,,31,195,207.5,217.5,217.5,135,140,-142.5,140,280,292.5,302.5,302.5,660,,307.5,SBD,Wraps,M,Open
1,Roque Domingues,AZ,110,107.8,,31,245,260,-267.5,260,132.5,137.5,142.5,142.5,245,260,-270,260,662.5,,,SBD,Wraps,M,Open
2,Dylan Latham,NV,110,105.9,,27,220,232.5,-242.5,232.5,130,145,150,150,-217.5,217.5,242.5,242.5,625,,,SBD,Wraps,M,Open
1,Domnic Vittori,NV,110,101.8,,47,-215,215,,215,165,175,-182.5,175,202.5,217.5,,217.5,607.5,,,SBD,Wraps,M,Masters 45-49
1,Jocelyne Nevarez,CA,52,51,,26,-125,142.5,147.5,147.5,92.5,97.5,102.5,102.5,120,137.5,142.5,142.5,392.5,,,SBD,Single-ply,F,Open
1,Nick Hafner,NV,90,90,,30,255,272.5,290,290,192.5,210,220,220,225,232.5,-240,232.5,742.5,,,SBD,Single-ply,M,Open
1,Joseph Gargiulo,NV,125,125,,52,,,,,142.5,152.5,,152.5,,,,,152.5,,,B,Raw,M,Open
1,Robby Manning,NV,100,98.3,,59,,,,,127.5,-135,135,135,,,,,135,,,B,Raw,M,Masters 55-59
1,Joseph Gargiulo,NV,125,125,,52,,,,,142.5,152.5,,152.5,,,,,152.5,,,B,Raw,M,Masters 50-54
1,Joseph Gargiulo,NV,125,125,,52,,,,,192.5,197.5,-205,197.5,,,,,197.5,,,B,Single-ply,M,Open
1,JP Sullivan,AZ,90,89.5,,63,,,,,115,122.5,-132.5,122.5,,,,,122.5,,,B,Single-ply,M,Masters 60-64
1,Joseph Gargiulo,NV,125,125,,52,,,,,192.5,197.5,-205,197.5,,,,,197.5,,,B,Single-ply,M,Masters 50-54
1,Alyssa Sullivan,IA,67.5,64,,26,,,,,,,,,130,137.5,145,145,145,,,D,Raw,F,Open
1,JP Sullivan,AZ,90,89.5,,63,,,,,,,,,212.5,220,227.5,227.5,227.5,,,D,Single-ply,M,Masters 60-64
